{
  "project_info": {
    "project_number": "280322353983",
    "firebase_url": "https://arctic-outpost-293005.firebaseio.com",
    "project_id": "arctic-outpost-293005",
    "storage_bucket": "arctic-outpost-293005.appspot.com"
  },
  "client": [
    {
      "client_info": {
        "mobilesdk_app_id": "1:280322353983:android:09bb52d709bbdec860818a",
        "android_client_info": {
          "package_name": "bagus.fanny.uts_android"
        }
      },
      "oauth_client": [
        {
          "client_id": "280322353983-d0keco6ttr4dpstdrlvfd0gmrcel01dg.apps.googleusercontent.com",
          "client_type": 3
        }
      ],
      "api_key": [
        {
          "current_key": "AIzaSyAJ_JZp7QiVWV3MdSx4wCkaFLJfwUqK12o"
        }
      ],
      "services": {
        "appinvite_service": {
          "other_platform_oauth_client": [
            {
              "client_id": "280322353983-d0keco6ttr4dpstdrlvfd0gmrcel01dg.apps.googleusercontent.com",
              "client_type": 3
            }
          ]
        }
      }
    }
  ],
  "configuration_version": "1"
}